Polynomial Pratice
…
Separate Train and Test Data

set.seed(123)
index.train <- sample(1:nrow(gapminder), round(nrow(gapminder) * 0.8))
train <- gapminder[index.train, ]
test <- gapminder[-index.train, ]
train

## # A tibble: 1,363 x 6
##    country           continent  year lifeExp       pop gdpPercap
##    <fct>             <fct>     <int>   <dbl>     <int>     <dbl>
##  1 Equatorial Guinea Africa     2002    49.3    495627     7703.
##  2 Serbia            Europe     2002    73.2  10111559     7236.
##  3 India             Asia       1952    37.4 372000000      547.
##  4 Taiwan            Asia       1962    65.2  11918938     1823.
##  5 United Kingdom    Europe     1962    70.8  53292000    12477.
##  6 Austria           Europe     1977    72.2   7568430    19749.
##  7 Liberia           Africa     1992    40.8   1912974      637.
##  8 Tanzania          Africa     1962    44.2  10863958      722.
##  9 Malawi            Africa     2007    48.3  13327079      759.
## 10 Italy             Europe     1977    73.5  56059245    14256.
## # ... with 1,353 more rows
…
